module gitlab.com/subwave/antialias-test

go 1.22.4

require (
	github.com/ebitengine/gomobile v0.0.0-20240518074828-e86332849895 // indirect
	github.com/ebitengine/hideconsole v1.0.0 // indirect
	github.com/ebitengine/purego v0.7.0 // indirect
	github.com/hajimehoshi/ebiten/v2 v2.7.4 // indirect
	github.com/jezek/xgb v1.1.1 // indirect
	github.com/quasilyte/ebitengine-graphics v0.0.0-20240612144128-74c2570aa3b1 // indirect
	github.com/quasilyte/gmath v0.0.0-20240609115014-06844cf1c3e2 // indirect
	golang.org/x/exp v0.0.0-20240222234643-814bf88cf225 // indirect
	golang.org/x/image v0.16.0 // indirect
	golang.org/x/sync v0.7.0 // indirect
	golang.org/x/sys v0.20.0 // indirect
)
